test_run_dir/HelloTester_should_pass/Hello.vcd
$date
2025-10-08T11:23+0000
$end
$version
0.2
$end
$comment

$end
$timescale 1ns  $end
$scope module Hello $end
 $var wire 1 " io_testerDataMemWriteEnable $end
 $var wire 16 % io_testerDataMemAddress $end
 $var wire 1 ' reset $end
 $var wire 1 * dataMemory $end
 $var wire 17 3 addressCounterReg $end
 $var wire 1 7 io_run $end
 $var wire 32 : dataReg $end
 $var wire 32 > invertedPixel $end
 $var wire 1 A clock $end
 $var wire 1 B io_testerDataMemEnable $end
 $var wire 1 H io_done $end
 $var wire 32 N io_testerDataMemDataRead $end
 $var wire 32 Q io_testerDataMemDataWrite $end
  $scope module dataMemory $end
   $var wire 1 , io_writeEnable $end
   $var wire 32 2 io_dataWrite $end
   $var wire 16 5 io_address $end
   $var wire 1 ? io_testerEnable $end
   $var wire 1 D clock $end
   $var wire 32 E io_testerDataRead $end
   $var wire 32 F io_dataRead $end
   $var wire 16 I io_testerAddress $end
   $var wire 32 J memory $end
   $var wire 32 R io_testerDataWrite $end
   $var wire 1 S io_testerWriteEnable $end
    $scope module memory $end
     $var wire 32 # MPORT $end
     $var wire 32 1 MPORT_1 $end
      $scope module MPORT_1 $end
       $var wire 16 ! pipeline_addr_0 $end
       $var wire 1 $ pipeline_valid_0 $end
       $var wire 1 ( valid $end
       $var wire 1 6 en $end
       $var wire 32 8 pipeline_data_0 $end
       $var wire 32 < data $end
       $var wire 1 = clk $end
       $var wire 1 K mask $end
       $var wire 16 M addr $end
      $upscope $end
      $scope module MPORT $end
       $var wire 32 & pipeline_data_0 $end
       $var wire 16 . addr $end
       $var wire 1 / mask $end
       $var wire 1 0 pipeline_valid_0 $end
       $var wire 32 ; data $end
       $var wire 16 C pipeline_addr_0 $end
       $var wire 1 G en $end
       $var wire 1 L valid $end
       $var wire 1 P clk $end
      $upscope $end
      $scope module io_dataRead_MPORT $end
       $var wire 16 ) addr $end
       $var wire 32 + data $end
       $var wire 1 @ en $end
       $var wire 1 O clk $end
      $upscope $end
      $scope module io_testerDataRead_MPORT $end
       $var wire 1 - en $end
       $var wire 1 4 clk $end
       $var wire 32 9 data $end
       $var wire 16 T addr $end
      $upscope $end
    $upscope $end
  $upscope $end
$upscope $end
$enddefinitions $end
$dumpvars
b0000000000000000 !
00
b00000000000000000000000000000000 +
b0000000000000000 %
04
b00000000000000000000000000000000 &
06
07
b0000000000000000 )
b00000000000000000000000000000000 #
0=
0?
0@
b00000000000000000000000000000000 ;
0A
b00000000000000000000000000000000 :
0B
b0000000000000000 .
b00000000000000000000000000000000 <
b0000000000000000 5
0D
b00000000000000000000000000000000 9
0G
b00000000000000000000000000000000 8
0H
b00000000000000000000000000000000 2
0L
1/
b00000000000000000000000000000000 1
0O
0P
0S
b00000000000000000 3
1K
b00000000000000000000000000000000 J
b00000000000000000000000000000000 F
b0000000000000000 C
b0000000000000000 I
b00000000000000000000000000000000 E
b0000000000000000 M
b00000000000000000000000000000000 >
0"
0$
b0000000000000000 T
0'
0(
b00000000000000000000000000000000 R
0*
0,
0-
b00000000000000000000000000000000 N
b00000000000000000000000000000000 Q
$end
#0
1@
b00000000000000000000000011111111 2
1'
b00000000000000000000000011111111 <
b00000000000000000000000011111111 >
#1
1P
1A
14
1D
b00000000000000000000000011111111 8
1=
1O
#6
0@
0A
1"
1B
0D
0'
1G
1L
1-
0O
0P
1S
04
0=
1?
#11
10
1P
1A
14
1D
1=
1O
#16
0P
0A
04
0D
b0000000000000001 T
b0000000000000001 %
b0000000000000001 I
0=
b0000000000000001 .
0O
#21
1P
1A
b0000000000000001 C
14
1D
1=
1O
#26
0P
0A
04
0D
b0000000000000010 T
b0000000000000010 %
b0000000000000010 I
0=
b0000000000000010 .
0O
#31
1P
1A
b0000000000000010 C
14
1D
1=
1O
#36
0P
0A
04
0D
b0000000000000011 T
b0000000000000011 %
b0000000000000011 I
0=
b0000000000000011 .
0O
#41
1P
1A
b0000000000000011 C
14
1D
1=
1O
#46
0P
0A
04
0D
b0000000000000100 T
b0000000000000100 %
b0000000000000100 I
0=
b0000000000000100 .
0O
#51
1P
1A
b0000000000000100 C
14
1D
1=
1O
#56
0P
0A
04
0D
b0000000000000101 T
b0000000000000101 %
b0000000000000101 I
0=
b0000000000000101 .
0O
#61
1P
1A
b0000000000000101 C
14
1D
1=
1O
#66
0P
0A
04
0D
b0000000000000110 T
b0000000000000110 %
b0000000000000110 I
0=
b0000000000000110 .
0O
#71
1P
1A
b0000000000000110 C
14
1D
1=
1O
#76
0P
0A
04
0D
b0000000000000111 T
b0000000000000111 %
b0000000000000111 I
0=
b0000000000000111 .
0O
#81
1P
1A
b0000000000000111 C
14
1D
1=
1O
#86
0P
0A
04
0D
b0000000000001000 T
b0000000000001000 %
b0000000000001000 I
0=
b0000000000001000 .
0O
#91
1P
1A
b0000000000001000 C
14
1D
1=
1O
#96
0P
0A
04
0D
b0000000000001001 T
b0000000000001001 %
b0000000000001001 I
0=
b0000000000001001 .
0O
#101
1P
1A
b0000000000001001 C
14
1D
1=
1O
#106
0P
0A
04
0D
b0000000000001010 T
b0000000000001010 %
b0000000000001010 I
0=
b0000000000001010 .
0O
#111
1P
1A
b0000000000001010 C
14
1D
1=
1O
#116
0P
0A
04
0D
b0000000000001011 T
b0000000000001011 %
b0000000000001011 I
0=
b0000000000001011 .
0O
#121
1P
1A
b0000000000001011 C
14
1D
1=
1O
#126
0P
0A
04
0D
b0000000000001100 T
b0000000000001100 %
b0000000000001100 I
0=
b0000000000001100 .
0O
#131
1P
1A
b0000000000001100 C
14
1D
1=
1O
#136
0P
0A
04
0D
b0000000000001101 T
b0000000000001101 %
b0000000000001101 I
0=
b0000000000001101 .
0O
#141
1P
1A
b0000000000001101 C
14
1D
1=
1O
#146
0P
0A
04
0D
b0000000000001110 T
b0000000000001110 %
b0000000000001110 I
0=
b0000000000001110 .
0O
#151
1P
1A
b0000000000001110 C
14
1D
1=
1O
#156
0P
0A
04
0D
b0000000000001111 T
b0000000000001111 %
b0000000000001111 I
0=
b0000000000001111 .
0O
#161
1P
1A
b0000000000001111 C
14
1D
1=
1O
#166
0P
0A
04
0D
b0000000000010000 T
b0000000000010000 %
b0000000000010000 I
0=
b0000000000010000 .
0O
#171
1P
1A
b0000000000010000 C
14
1D
1=
1O
#176
0P
0A
04
0D
b0000000000010001 T
b0000000000010001 %
b0000000000010001 I
0=
b0000000000010001 .
0O
#181
1P
1A
b0000000000010001 C
14
1D
1=
1O
#186
0P
0A
04
0D
b0000000000010010 T
b0000000000010010 %
b0000000000010010 I
0=
b0000000000010010 .
0O
#191
1P
1A
b0000000000010010 C
14
1D
1=
1O
#196
0P
0A
04
0D
b0000000000010011 T
b0000000000010011 %
b0000000000010011 I
0=
b0000000000010011 .
0O
#201
1P
1A
b0000000000010011 C
14
1D
1=
1O
#206
0P
0A
04
0D
b0000000000010100 T
b0000000000010100 %
b0000000000010100 I
0=
b0000000000010100 .
0O
#211
1P
1A
b0000000000010100 C
14
1D
1=
1O
#216
0P
0A
04
0D
b0000000000010101 T
b0000000000010101 %
b0000000000010101 I
0=
b0000000000010101 .
0O
#221
1P
1A
b0000000000010101 C
14
1D
1=
1O
#226
0P
0A
04
0D
b0000000000010110 T
b0000000000010110 %
b0000000000010110 I
0=
b0000000000010110 .
0O
#231
1P
1A
b0000000000010110 C
14
1D
1=
1O
#236
0P
0A
04
0D
b0000000000010111 T
b0000000000010111 %
b0000000000010111 I
0=
b0000000000010111 .
0O
#241
1P
1A
b0000000000010111 C
14
1D
1=
1O
#246
0P
0A
04
0D
b0000000000011000 T
b0000000000011000 %
b0000000000011000 I
0=
b0000000000011000 .
0O
#251
1P
1A
b0000000000011000 C
14
1D
1=
1O
#256
0P
0A
04
0D
b0000000000011001 T
b0000000000011001 %
b0000000000011001 I
0=
b0000000000011001 .
0O
#261
1P
1A
b0000000000011001 C
14
1D
1=
1O
#266
0P
0A
04
0D
b0000000000011010 T
b0000000000011010 %
b0000000000011010 I
0=
b0000000000011010 .
0O
#271
1P
1A
b0000000000011010 C
14
1D
1=
1O
#276
0P
0A
04
0D
b0000000000011011 T
b0000000000011011 %
b0000000000011011 I
0=
b0000000000011011 .
0O
#281
1P
1A
b0000000000011011 C
14
1D
1=
1O
#286
0P
0A
04
0D
b0000000000011100 T
b0000000000011100 %
b0000000000011100 I
0=
b0000000000011100 .
0O
#291
1P
1A
b0000000000011100 C
14
1D
1=
1O
#296
0P
0A
04
0D
b0000000000011101 T
b0000000000011101 %
b0000000000011101 I
0=
b0000000000011101 .
0O
#301
1P
1A
b0000000000011101 C
14
1D
1=
1O
#306
0P
0A
04
0D
b0000000000011110 T
b0000000000011110 %
b0000000000011110 I
0=
b0000000000011110 .
0O
#311
1P
1A
b0000000000011110 C
14
1D
1=
1O
#316
0P
0A
04
0D
b0000000000011111 T
b0000000000011111 %
b0000000000011111 I
0=
b0000000000011111 .
0O
#321
1P
1A
b0000000000011111 C
14
1D
1=
1O
#326
0P
0A
04
0D
b0000000000100000 T
b0000000000100000 %
b0000000000100000 I
0=
b0000000000100000 .
0O
#331
1P
1A
b0000000000100000 C
14
1D
1=
1O
#336
0P
0A
04
0D
b0000000000100001 T
b0000000000100001 %
b0000000000100001 I
0=
b0000000000100001 .
0O
#341
1P
1A
b0000000000100001 C
14
1D
1=
1O
#346
0P
0A
04
0D
b0000000000100010 T
b0000000000100010 %
b0000000000100010 I
0=
b0000000000100010 .
0O
#351
1P
1A
b0000000000100010 C
14
1D
1=
1O
#356
0P
0A
04
0D
b0000000000100011 T
b0000000000100011 %
b0000000000100011 I
0=
b0000000000100011 .
0O
#361
1P
1A
b0000000000100011 C
14
1D
1=
1O
#366
0P
0A
04
0D
b0000000000100100 T
b0000000000100100 %
b0000000000100100 I
0=
b0000000000100100 .
0O
#371
1P
1A
b0000000000100100 C
14
1D
1=
1O
#376
0P
0A
04
0D
b0000000000100101 T
b0000000000100101 %
b0000000000100101 I
0=
b0000000000100101 .
0O
#381
1P
1A
b0000000000100101 C
14
1D
1=
1O
#386
0P
0A
04
0D
b0000000000100110 T
b0000000000100110 %
b0000000000100110 I
0=
b0000000000100110 .
0O
#391
1P
1A
b0000000000100110 C
14
1D
1=
1O
#396
0P
0A
04
0D
b0000000000100111 T
b0000000000100111 %
b0000000000100111 I
0=
b0000000000100111 .
0O
#401
1P
1A
b0000000000100111 C
14
1D
1=
1O
#406
0P
0A
04
0D
b0000000000101000 T
b0000000000101000 %
b0000000000101000 I
0=
b0000000000101000 .
0O
#411
1P
1A
b0000000000101000 C
14
1D
1=
1O
#416
0P
0A
04
0D
b0000000000101001 T
b0000000000101001 %
b0000000000101001 I
0=
b0000000000101001 .
0O
#421
1P
1A
b0000000000101001 C
14
1D
1=
1O
#426
0P
0A
04
0D
b0000000000101010 T
b0000000000101010 %
b0000000000101010 I
0=
b0000000000101010 .
0O
#431
1P
1A
b0000000000101010 C
14
1D
1=
1O
#436
0P
0A
04
0D
b0000000000101011 T
b0000000000101011 %
b0000000000101011 I
0=
b0000000000101011 .
0O
#441
1P
1A
b0000000000101011 C
14
1D
1=
1O
#446
0P
0A
04
0D
b0000000000101100 T
b0000000000101100 %
b0000000000101100 I
0=
b0000000000101100 .
0O
#451
1P
1A
b0000000000101100 C
14
1D
1=
1O
#456
0P
0A
04
0D
b0000000000101101 T
b0000000000101101 %
b0000000000101101 I
0=
b0000000000101101 .
0O
#461
1P
1A
b0000000000101101 C
14
1D
1=
1O
#466
0P
0A
04
0D
b0000000000101110 T
b0000000000101110 %
b0000000000101110 I
0=
b0000000000101110 .
0O
#471
1P
1A
b0000000000101110 C
14
1D
1=
1O
#476
0P
0A
04
0D
b0000000000101111 T
b0000000000101111 %
b0000000000101111 I
0=
b0000000000101111 .
0O
#481
1P
1A
b0000000000101111 C
14
1D
1=
1O
#486
0P
0A
04
0D
b0000000000110000 T
b0000000000110000 %
b0000000000110000 I
0=
b0000000000110000 .
0O
#491
1P
1A
b0000000000110000 C
14
1D
1=
1O
#496
0P
0A
04
0D
b0000000000110001 T
b0000000000110001 %
b0000000000110001 I
0=
b0000000000110001 .
0O
#501
1P
1A
b0000000000110001 C
14
1D
1=
1O
#506
0P
0A
04
0D
b0000000000110010 T
b0000000000110010 %
b0000000000110010 I
0=
b0000000000110010 .
0O
#511
1P
1A
b0000000000110010 C
14
1D
1=
1O
#516
0P
0A
04
0D
b0000000000110011 T
b0000000000110011 %
b0000000000110011 I
0=
b0000000000110011 .
0O
#521
1P
1A
b0000000000110011 C
14
1D
1=
1O
#526
0P
0A
04
0D
b0000000000110100 T
b0000000000110100 %
b0000000000110100 I
0=
b0000000000110100 .
0O
#531
1P
1A
b0000000000110100 C
14
1D
1=
1O
#536
0P
0A
04
0D
b0000000000110101 T
b0000000000110101 %
b0000000000110101 I
0=
b0000000000110101 .
0O
#541
1P
1A
b0000000000110101 C
14
1D
1=
1O
#546
0P
0A
04
0D
b0000000000110110 T
b0000000000110110 %
b0000000000110110 I
0=
b0000000000110110 .
0O
#551
1P
1A
b0000000000110110 C
14
1D
1=
1O
#556
0P
0A
04
0D
b0000000000110111 T
b0000000000110111 %
b0000000000110111 I
0=
b0000000000110111 .
0O
#561
1P
1A
b0000000000110111 C
14
1D
1=
1O
#566
0P
0A
04
0D
b0000000000111000 T
b0000000000111000 %
b0000000000111000 I
0=
b0000000000111000 .
0O
#571
1P
1A
b0000000000111000 C
14
1D
1=
1O
#576
0P
0A
04
0D
b0000000000111001 T
b0000000000111001 %
b0000000000111001 I
0=
b0000000000111001 .
0O
#581
1P
1A
b0000000000111001 C
14
1D
1=
1O
#586
0P
0A
04
0D
b0000000000111010 T
b0000000000111010 %
b0000000000111010 I
0=
b0000000000111010 .
0O
#591
1P
1A
b0000000000111010 C
14
1D
1=
1O
#596
0P
0A
04
0D
b0000000000111011 T
b0000000000111011 %
b0000000000111011 I
0=
b0000000000111011 .
0O
#601
1P
1A
b0000000000111011 C
14
1D
1=
1O
#606
0P
0A
04
0D
b0000000000111100 T
b0000000000111100 %
b0000000000111100 I
0=
b0000000000111100 .
0O
#611
1P
1A
b0000000000111100 C
14
1D
1=
1O
#616
0P
0A
04
0D
b0000000000111101 T
b0000000000111101 %
b0000000000111101 I
0=
b0000000000111101 .
0O
#621
1P
1A
b0000000000111101 C
14
1D
1=
1O
#626
0P
0A
04
0D
b0000000000111110 T
b0000000000111110 %
b0000000000111110 I
0=
b0000000000111110 .
0O
#631
1P
1A
b0000000000111110 C
14
1D
1=
1O
#636
0P
0A
04
0D
b0000000000111111 T
b0000000000111111 %
b0000000000111111 I
0=
b0000000000111111 .
0O
#641
1P
1A
b0000000000111111 C
14
1D
1=
1O
#646
0P
0A
04
0D
b0000000001000000 T
b0000000001000000 %
b0000000001000000 I
0=
b0000000001000000 .
0O
#651
1P
1A
b0000000001000000 C
14
1D
1=
1O
#656
0P
0A
04
0D
b0000000001000001 T
b0000000001000001 %
b0000000001000001 I
0=
b0000000001000001 .
0O
#661
1P
1A
b0000000001000001 C
14
1D
1=
1O
#666
0P
0A
04
0D
b0000000001000010 T
b0000000001000010 %
b0000000001000010 I
0=
b0000000001000010 .
0O
#671
1P
1A
b0000000001000010 C
14
1D
1=
1O
#676
0P
0A
04
0D
b0000000001000011 T
b0000000001000011 %
b0000000001000011 I
0=
b0000000001000011 .
0O
#681
1P
1A
b0000000001000011 C
14
1D
1=
1O
#686
0P
0A
04
0D
b0000000001000100 T
b0000000001000100 %
b0000000001000100 I
0=
b0000000001000100 .
0O
#691
1P
1A
b0000000001000100 C
14
1D
1=
1O
#696
0P
0A
04
0D
b0000000001000101 T
b0000000001000101 %
b0000000001000101 I
0=
b0000000001000101 .
0O
#701
1P
1A
b0000000001000101 C
14
1D
1=
1O
#706
0P
0A
04
0D
b0000000001000110 T
b0000000001000110 %
b0000000001000110 I
0=
b0000000001000110 .
0O
#711
1P
1A
b0000000001000110 C
14
1D
1=
1O
#716
0P
0A
04
0D
b0000000001000111 T
b0000000001000111 %
b0000000001000111 I
0=
b0000000001000111 .
0O
#721
1P
1A
b0000000001000111 C
14
1D
1=
1O
#726
0P
0A
04
0D
b0000000001001000 T
b0000000001001000 %
b0000000001001000 I
0=
b0000000001001000 .
0O
#731
1P
1A
b0000000001001000 C
14
1D
1=
1O
#736
0P
0A
04
0D
b0000000001001001 T
b0000000001001001 %
b0000000001001001 I
0=
b0000000001001001 .
0O
#741
1P
1A
b0000000001001001 C
14
1D
1=
1O
#746
0P
0A
04
0D
b0000000001001010 T
b0000000001001010 %
b0000000001001010 I
0=
b0000000001001010 .
0O
#751
1P
1A
b0000000001001010 C
14
1D
1=
1O
#756
0P
0A
04
0D
b0000000001001011 T
b0000000001001011 %
b0000000001001011 I
0=
b0000000001001011 .
0O
#761
1P
1A
b0000000001001011 C
14
1D
1=
1O
#766
0P
0A
04
0D
b0000000001001100 T
b0000000001001100 %
b0000000001001100 I
0=
b0000000001001100 .
0O
#771
1P
1A
b0000000001001100 C
14
1D
1=
1O
#776
0P
0A
04
0D
b0000000001001101 T
b0000000001001101 %
b0000000001001101 I
0=
b0000000001001101 .
0O
#781
1P
1A
b0000000001001101 C
14
1D
1=
1O
#786
0P
0A
04
0D
b0000000001001110 T
b0000000001001110 %
b0000000001001110 I
0=
b0000000001001110 .
0O
#791
1P
1A
b0000000001001110 C
14
1D
1=
1O
#796
0P
0A
04
0D
b0000000001001111 T
b0000000001001111 %
b0000000001001111 I
0=
b0000000001001111 .
0O
#801
1P
1A
b0000000001001111 C
14
1D
1=
1O
#806
0P
0A
04
0D
b0000000001010000 T
b0000000001010000 %
b0000000001010000 I
0=
b0000000001010000 .
0O
#811
1P
1A
b0000000001010000 C
14
1D
1=
1O
#816
0P
0A
04
0D
b0000000001010001 T
b0000000001010001 %
b0000000001010001 I
0=
b0000000001010001 .
0O
#821
1P
1A
b0000000001010001 C
14
1D
1=
1O
#826
0P
0A
04
0D
b0000000001010010 T
b0000000001010010 %
b0000000001010010 I
0=
b0000000001010010 .
0O
#831
1P
1A
b0000000001010010 C
14
1D
1=
1O
#836
0P
0A
04
0D
b0000000001010011 T
b0000000001010011 %
b0000000001010011 I
0=
b0000000001010011 .
0O
#841
1P
1A
b0000000001010011 C
14
1D
1=
1O
#846
0P
0A
04
0D
b0000000001010100 T
b0000000001010100 %
b0000000001010100 I
0=
b0000000001010100 .
0O
#851
1P
1A
b0000000001010100 C
14
1D
1=
1O
#856
0P
0A
04
0D
b0000000001010101 T
b0000000001010101 %
b0000000001010101 I
0=
b0000000001010101 .
0O
#861
1P
1A
b0000000001010101 C
14
1D
1=
1O
#866
0P
0A
04
0D
b0000000001010110 T
b0000000001010110 %
b0000000001010110 I
0=
b0000000001010110 .
0O
#871
1P
1A
b0000000001010110 C
14
1D
1=
1O
#876
0P
0A
04
0D
b0000000001010111 T
b0000000001010111 %
b0000000001010111 I
0=
b0000000001010111 .
0O
#881
1P
1A
b0000000001010111 C
14
1D
1=
1O
#886
0P
0A
04
0D
b0000000001011000 T
b0000000001011000 %
b0000000001011000 I
0=
b0000000001011000 .
0O
#891
1P
1A
b0000000001011000 C
14
1D
1=
1O
#896
0P
0A
04
0D
b0000000001011001 T
b0000000001011001 %
b0000000001011001 I
0=
b0000000001011001 .
0O
#901
1P
1A
b0000000001011001 C
14
1D
1=
1O
#906
0P
0A
04
0D
b0000000001011010 T
b0000000001011010 %
b0000000001011010 I
0=
b0000000001011010 .
0O
#911
1P
1A
b0000000001011010 C
14
1D
1=
1O
#916
0P
0A
04
0D
b0000000001011011 T
b0000000001011011 %
b0000000001011011 I
0=
b0000000001011011 .
0O
#921
1P
1A
b0000000001011011 C
14
1D
1=
1O
#926
0P
0A
04
0D
b0000000001011100 T
b0000000001011100 %
b0000000001011100 I
0=
b0000000001011100 .
0O
#931
1P
1A
b0000000001011100 C
14
1D
1=
1O
#936
0P
0A
04
0D
b0000000001011101 T
b0000000001011101 %
b0000000001011101 I
0=
b0000000001011101 .
0O
#941
1P
1A
b0000000001011101 C
14
1D
1=
1O
#946
0P
0A
04
0D
b0000000001011110 T
b0000000001011110 %
b0000000001011110 I
0=
b0000000001011110 .
0O
#951
1P
1A
b0000000001011110 C
14
1D
1=
1O
#956
0A
0D
b0000000001011111 %
b00000000000000000000000011111111 E
b0000000001011111 I
b0000000001011111 .
b00000000000000000000000011111111 N
0O
0P
b00000000000000000000000011111111 Q
b00000000000000000000000011111111 R
04
b0000000001011111 T
b00000000000000000000000011111111 ;
0=
#961
1P
1A
b0000000001011111 C
14
1D
b00000000000000000000000011111111 &
b00000000000000000000000011111111 9
1=
1O
#966
0A
0D
b0000000001100000 %
b00000000000000000000000000000000 E
b0000000001100000 I
b0000000001100000 .
b00000000000000000000000000000000 N
0O
0P
b00000000000000000000000000000000 Q
b00000000000000000000000000000000 R
04
b0000000001100000 T
b00000000000000000000000000000000 9
b00000000000000000000000000000000 ;
0=
#971
1P
1A
b0000000001100000 C
14
1D
b00000000000000000000000000000000 &
1=
1O
#976
0P
0A
04
0D
b0000000001100001 T
b0000000001100001 %
b0000000001100001 I
0=
b0000000001100001 .
0O
#981
1P
1A
b0000000001100001 C
14
1D
1=
1O
#986
0P
0A
04
0D
b0000000001100010 T
b0000000001100010 %
b0000000001100010 I
0=
b0000000001100010 .
0O
#991
1P
1A
b0000000001100010 C
14
1D
1=
1O
#996
0P
0A
04
0D
b0000000001100011 T
b0000000001100011 %
b0000000001100011 I
0=
b0000000001100011 .
0O
#1001
1P
1A
b0000000001100011 C
14
1D
1=
1O
#1006
0P
0A
04
0D
b0000000001100100 T
b0000000001100100 %
b0000000001100100 I
0=
b0000000001100100 .
0O
#1011
1P
1A
b0000000001100100 C
14
1D
1=
1O
#1016
0P
0A
04
0D
b0000000001100101 T
b0000000001100101 %
b0000000001100101 I
0=
b0000000001100101 .
0O
#1021
1P
1A
b0000000001100101 C
14
1D
1=
1O
#1026
0P
0A
04
0D
b0000000001100110 T
b0000000001100110 %
b0000000001100110 I
0=
b0000000001100110 .
0O
#1031
1P
1A
b0000000001100110 C
14
1D
1=
1O
#1036
0P
0A
04
0D
b0000000001100111 T
b0000000001100111 %
b0000000001100111 I
0=
b0000000001100111 .
0O
#1041
1P
1A
b0000000001100111 C
14
1D
1=
1O
#1046
0A
0D
b0000000001101000 %
b00000000000000000000000011111111 E
b0000000001101000 I
b0000000001101000 .
b00000000000000000000000011111111 N
0O
0P
b00000000000000000000000011111111 Q
b00000000000000000000000011111111 R
04
b0000000001101000 T
b00000000000000000000000011111111 ;
0=
#1051
1P
1A
b0000000001101000 C
14
1D
b00000000000000000000000011111111 &
b00000000000000000000000011111111 9
1=
1O
#1056
0A
0D
b0000000001101001 %
b00000000000000000000000000000000 E
b0000000001101001 I
b0000000001101001 .
b00000000000000000000000000000000 N
0O
0P
b00000000000000000000000000000000 Q
b00000000000000000000000000000000 R
04
b0000000001101001 T
b00000000000000000000000000000000 9
b00000000000000000000000000000000 ;
0=
#1061
1P
1A
b0000000001101001 C
14
1D
b00000000000000000000000000000000 &
1=
1O
#1066
0P
0A
04
0D
b0000000001101010 T
b0000000001101010 %
b0000000001101010 I
0=
b0000000001101010 .
0O
#1071
1P
1A
b0000000001101010 C
14
1D
1=
1O
#1076
0P
0A
04
0D
b0000000001101011 T
b0000000001101011 %
b0000000001101011 I
0=
b0000000001101011 .
0O
#1081
1P
1A
b0000000001101011 C
14
1D
1=
1O
#1086
0P
0A
04
0D
b0000000001101100 T
b0000000001101100 %
b0000000001101100 I
0=
b0000000001101100 .
0O
#1091
1P
1A
b0000000001101100 C
14
1D
1=
1O
#1096
0P
0A
04
0D
b0000000001101101 T
b0000000001101101 %
b0000000001101101 I
0=
b0000000001101101 .
0O
#1101
1P
1A
b0000000001101101 C
14
1D
1=
1O
#1106
0P
0A
04
0D
b0000000001101110 T
b0000000001101110 %
b0000000001101110 I
0=
b0000000001101110 .
0O
#1111
1P
1A
b0000000001101110 C
14
1D
1=
1O
#1116
0P
0A
04
0D
b0000000001101111 T
b0000000001101111 %
b0000000001101111 I
0=
b0000000001101111 .
0O
#1121
1P
1A
b0000000001101111 C
14
1D
1=
1O
#1126
0P
0A
04
0D
b0000000001110000 T
b0000000001110000 %
b0000000001110000 I
0=
b0000000001110000 .
0O
#1131
1P
1A
b0000000001110000 C
14
1D
1=
1O
#1136
0P
0A
04
0D
b0000000001110001 T
b0000000001110001 %
b0000000001110001 I
0=
b0000000001110001 .
0O
#1141
1P
1A
b0000000001110001 C
14
1D
1=
1O
#1146
0A
0D
b0000000001110010 %
b00000000000000000000000011111111 E
b0000000001110010 I
b0000000001110010 .
b00000000000000000000000011111111 N
0O
0P
b00000000000000000000000011111111 Q
b00000000000000000000000011111111 R
04
b0000000001110010 T
b00000000000000000000000011111111 ;
0=
#1151
1P
1A
b0000000001110010 C
14
1D
b00000000000000000000000011111111 &
b00000000000000000000000011111111 9
1=
1O
#1156
0P
0A
04
0D
b0000000001110011 T
b0000000001110011 %
b00000000000000000000000000000000 9
b0000000001110011 I
0=
b0000000001110011 .
0O
#1161
1P
1A
b0000000001110011 C
14
1D
b00000000000000000000000011111111 9
1=
1O
#1166
0P
0A
04
0D
b0000000001110100 T
b0000000001110100 %
b00000000000000000000000000000000 9
b0000000001110100 I
0=
b0000000001110100 .
0O
#1171
1P
1A
b0000000001110100 C
14
1D
b00000000000000000000000011111111 9
1=
1O
#1176
0A
0D
b0000000001110101 %
b00000000000000000000000000000000 E
b0000000001110101 I
b0000000001110101 .
b00000000000000000000000000000000 N
0O
0P
b00000000000000000000000000000000 Q
b00000000000000000000000000000000 R
04
b0000000001110101 T
b00000000000000000000000000000000 9
b00000000000000000000000000000000 ;
0=
#1181
1P
1A
b0000000001110101 C
14
1D
b00000000000000000000000000000000 &
1=
1O
#1186
0P
0A
04
0D
b0000000001110110 T
b0000000001110110 %
b0000000001110110 I
0=
b0000000001110110 .
0O
#1191
1P
1A
b0000000001110110 C
14
1D
1=
1O
#1196
0P
0A
04
0D
b0000000001110111 T
b0000000001110111 %
b0000000001110111 I
0=
b0000000001110111 .
0O
#1201
1P
1A
b0000000001110111 C
14
1D
1=
1O
#1206
0P
0A
04
0D
b0000000001111000 T
b0000000001111000 %
b0000000001111000 I
0=
b0000000001111000 .
0O
#1211
1P
1A
b0000000001111000 C
14
1D
1=
1O
#1216
0P
0A
04
0D
b0000000001111001 T
b0000000001111001 %
b0000000001111001 I
0=
b0000000001111001 .
0O
#1221
1P
1A
b0000000001111001 C
14
1D
1=
1O
#1226
0P
0A
04
0D
b0000000001111010 T
b0000000001111010 %
b0000000001111010 I
0=
b0000000001111010 .
0O
#1231
1P
1A
b0000000001111010 C
14
1D
1=
1O
#1236
0A
0D
b0000000001111011 %
b00000000000000000000000011111111 E
b0000000001111011 I
b0000000001111011 .
b00000000000000000000000011111111 N
0O
0P
b00000000000000000000000011111111 Q
b00000000000000000000000011111111 R
04
b0000000001111011 T
b00000000000000000000000011111111 ;
0=
#1241
1P
1A
b0000000001111011 C
14
1D
b00000000000000000000000011111111 &
b00000000000000000000000011111111 9
1=
1O
#1246
0P
0A
04
0D
b0000000001111100 T
b0000000001111100 %
b00000000000000000000000000000000 9
b0000000001111100 I
0=
b0000000001111100 .
0O
#1251
1P
1A
b0000000001111100 C
14
1D
b00000000000000000000000011111111 9
1=
1O
#1256
0P
0A
04
0D
b0000000001111101 T
b0000000001111101 %
b00000000000000000000000000000000 9
b0000000001111101 I
0=
b0000000001111101 .
0O
#1261
1P
1A
b0000000001111101 C
14
1D
b00000000000000000000000011111111 9
1=
1O
#1266
0A
0D
b0000000001111110 %
b00000000000000000000000000000000 E
b0000000001111110 I
b0000000001111110 .
b00000000000000000000000000000000 N
0O
0P
b00000000000000000000000000000000 Q
b00000000000000000000000000000000 R
04
b0000000001111110 T
b00000000000000000000000000000000 9
b00000000000000000000000000000000 ;
0=
#1271
1P
1A
b0000000001111110 C
14
1D
b00000000000000000000000000000000 &
1=
1O
#1276
0P
0A
04
0D
b0000000001111111 T
b0000000001111111 %
b0000000001111111 I
0=
b0000000001111111 .
0O
#1281
1P
1A
b0000000001111111 C
14
1D
1=
1O
#1286
0P
0A
04
0D
b0000000010000000 T
b0000000010000000 %
b0000000010000000 I
0=
b0000000010000000 .
0O
#1291
1P
1A
b0000000010000000 C
14
1D
1=
1O
#1296
0P
0A
04
0D
b0000000010000001 T
b0000000010000001 %
b0000000010000001 I
0=
b0000000010000001 .
0O
#1301
1P
1A
b0000000010000001 C
14
1D
1=
1O
#1306
0P
0A
04
0D
b0000000010000010 T
b0000000010000010 %
b0000000010000010 I
0=
b0000000010000010 .
0O
#1311
1P
1A
b0000000010000010 C
14
1D
1=
1O
#1316
0P
0A
04
0D
b0000000010000011 T
b0000000010000011 %
b0000000010000011 I
0=
b0000000010000011 .
0O
#1321
1P
1A
b0000000010000011 C
14
1D
1=
1O
#1326
0P
0A
04
0D
b0000000010000100 T
b0000000010000100 %
b0000000010000100 I
0=
b0000000010000100 .
0O
#1331
1P
1A
b0000000010000100 C
14
1D
1=
1O
#1336
0A
0D
b0000000010000101 %
b00000000000000000000000011111111 E
b0000000010000101 I
b0000000010000101 .
b00000000000000000000000011111111 N
0O
0P
b00000000000000000000000011111111 Q
b00000000000000000000000011111111 R
04
b0000000010000101 T
b00000000000000000000000011111111 ;
0=
#1341
1P
1A
b0000000010000101 C
14
1D
b00000000000000000000000011111111 &
b00000000000000000000000011111111 9
1=
1O
#1346
0P
0A
04
0D
b0000000010000110 T
b0000000010000110 %
b00000000000000000000000000000000 9
b0000000010000110 I
0=
b0000000010000110 .
0O
#1351
1P
1A
b0000000010000110 C
14
1D
b00000000000000000000000011111111 9
1=
1O
